# Blender v2.93.6 OBJ File: 'decorations.blend'
# www.blender.org
o macgregors_mound_Torus
v 2.924854 0.091404 0.000000
v 2.704845 0.311413 0.000000
v 2.404306 0.391942 0.000000
v 2.103768 0.311413 0.000000
v 1.883759 0.091404 0.000000
v 2.899832 0.091404 -0.381770
v 2.681705 0.311413 -0.353053
v 2.383737 0.391942 -0.313825
v 2.085770 0.311413 -0.274597
v 1.867643 0.091404 -0.245880
v 2.825192 0.091404 -0.757008
v 2.612679 0.311413 -0.700065
v 2.322382 0.391942 -0.622280
v 2.032084 0.311413 -0.544495
v 1.819571 0.091404 -0.487553
v 2.702213 0.091404 -1.119293
v 2.498951 0.311413 -1.035099
v 2.221290 0.391942 -0.920088
v 1.943628 0.311413 -0.805077
v 1.740366 0.091404 -0.720883
v 2.532998 0.091404 -1.462427
v 2.342464 0.311413 -1.352423
v 2.082190 0.391942 -1.202153
v 1.821916 0.311413 -1.051884
v 1.631383 0.091404 -0.941880
v 2.320443 0.091404 -1.780538
v 2.145898 0.311413 -1.646605
v 1.907465 0.391942 -1.463649
v 1.669032 0.311413 -1.280693
v 1.494487 0.091404 -1.146759
v 2.068184 0.091404 -2.068184
v 1.912614 0.311413 -1.912614
v 1.700101 0.391942 -1.700101
v 1.487589 0.311413 -1.487589
v 1.332018 0.091404 -1.332019
v 1.780539 0.091404 -2.320442
v 1.646605 0.311413 -2.145897
v 1.463649 0.391942 -1.907464
v 1.280693 0.311413 -1.669031
v 1.146760 0.091404 -1.494486
v 1.462427 0.091404 -2.532998
v 1.352422 0.311413 -2.342464
v 1.202153 0.391942 -2.082191
v 1.051884 0.311413 -1.821917
v 0.941879 0.091404 -1.631383
v 1.119294 0.091404 -2.702212
v 1.035100 0.311413 -2.498950
v 0.920089 0.391942 -2.221289
v 0.805078 0.311413 -1.943628
v 0.720884 0.091404 -1.740366
v 0.757008 0.091404 -2.825192
v 0.700065 0.311413 -2.612679
v 0.622280 0.391942 -2.322382
v 0.544495 0.311413 -2.032084
v 0.487553 0.091404 -1.819571
v 0.381770 0.091404 -2.899832
v 0.353053 0.311413 -2.681705
v 0.313825 0.391942 -2.383737
v 0.274596 0.311413 -2.085770
v 0.245880 0.091404 -1.867643
v 0.000000 0.091404 -2.924854
v 0.000000 0.311413 -2.704845
v 0.000000 0.391942 -2.404306
v 0.000000 0.311413 -2.103768
v 0.000000 0.091404 -1.883759
v -0.381770 0.091404 -2.899831
v -0.353053 0.311413 -2.681704
v -0.313825 0.391942 -2.383737
v -0.274597 0.311413 -2.085770
v -0.245880 0.091404 -1.867643
v -0.757008 0.091404 -2.825192
v -0.700065 0.311413 -2.612679
v -0.622280 0.391942 -2.322382
v -0.544495 0.311413 -2.032084
v -0.487552 0.091404 -1.819571
v -1.119293 0.091404 -2.702213
v -1.035100 0.311413 -2.498951
v -0.920088 0.391942 -2.221289
v -0.805077 0.311413 -1.943628
v -0.720883 0.091404 -1.740366
v -1.462427 0.091404 -2.532998
v -1.352422 0.311413 -2.342464
v -1.202153 0.391942 -2.082191
v -1.051884 0.311413 -1.821917
v -0.941879 0.091404 -1.631383
v -1.780538 0.091404 -2.320443
v -1.646605 0.311413 -2.145897
v -1.463649 0.391942 -1.907465
v -1.280693 0.311413 -1.669032
v -1.146760 0.091404 -1.494486
v -2.068185 0.091404 -2.068184
v -1.912615 0.311413 -1.912614
v -1.700102 0.391942 -1.700101
v -1.487589 0.311413 -1.487588
v -1.332019 0.091404 -1.332018
v -2.320443 0.091404 -1.780538
v -2.145897 0.311413 -1.646605
v -1.907465 0.391942 -1.463649
v -1.669032 0.311413 -1.280693
v -1.494486 0.091404 -1.146760
v -2.532997 0.091404 -1.462428
v -2.342464 0.311413 -1.352423
v -2.082190 0.391942 -1.202154
v -1.821916 0.311413 -1.051885
v -1.631383 0.091404 -0.941880
v -2.702213 0.091404 -1.119293
v -2.498951 0.311413 -1.035099
v -2.221289 0.391942 -0.920088
v -1.943628 0.311413 -0.805077
v -1.740366 0.091404 -0.720883
v -2.825192 0.091404 -0.757008
v -2.612679 0.311413 -0.700065
v -2.322382 0.391942 -0.622280
v -2.032084 0.311413 -0.544495
v -1.819571 0.091404 -0.487552
v -2.899831 0.091404 -0.381770
v -2.681704 0.311413 -0.353053
v -2.383737 0.391942 -0.313825
v -2.085770 0.311413 -0.274597
v -1.867643 0.091404 -0.245880
v -2.924854 0.091404 -0.000000
v -2.704845 0.311413 -0.000000
v -2.404306 0.391942 -0.000000
v -2.103768 0.311413 -0.000000
v -1.883759 0.091404 -0.000000
v -2.899831 0.091404 0.381770
v -2.681704 0.311413 0.353053
v -2.383737 0.391942 0.313825
v -2.085770 0.311413 0.274597
v -1.867643 0.091404 0.245880
v -2.825192 0.091404 0.757008
v -2.612679 0.311413 0.700065
v -2.322382 0.391942 0.622280
v -2.032084 0.311413 0.544495
v -1.819571 0.091404 0.487552
v -2.702213 0.091404 1.119292
v -2.498951 0.311413 1.035098
v -2.221290 0.391942 0.920087
v -1.943629 0.311413 0.805076
v -1.740366 0.091404 0.720883
v -2.532998 0.091404 1.462426
v -2.342464 0.311413 1.352422
v -2.082191 0.391942 1.202153
v -1.821917 0.311413 1.051884
v -1.631383 0.091404 0.941879
v -2.320443 0.091404 1.780538
v -2.145897 0.311413 1.646605
v -1.907465 0.391942 1.463649
v -1.669032 0.311413 1.280693
v -1.494486 0.091404 1.146760
v -2.068185 0.091404 2.068184
v -1.912615 0.311413 1.912614
v -1.700102 0.391942 1.700101
v -1.487589 0.311413 1.487588
v -1.332019 0.091404 1.332018
v -1.780540 0.091404 2.320442
v -1.646606 0.311413 2.145897
v -1.463650 0.391942 1.907464
v -1.280694 0.311413 1.669031
v -1.146760 0.091404 1.494486
v -1.462427 0.091404 2.532998
v -1.352422 0.311413 2.342464
v -1.202153 0.391942 2.082191
v -1.051884 0.311413 1.821917
v -0.941879 0.091404 1.631383
v -1.119293 0.091404 2.702213
v -1.035100 0.311413 2.498951
v -0.920088 0.391942 2.221289
v -0.805077 0.311413 1.943628
v -0.720883 0.091404 1.740366
v -0.757009 0.091404 2.825192
v -0.700066 0.311413 2.612679
v -0.622281 0.391942 2.322381
v -0.544496 0.311413 2.032084
v -0.487553 0.091404 1.819571
v -0.381772 0.091404 2.899831
v -0.353055 0.311413 2.681704
v -0.313826 0.391942 2.383737
v -0.274598 0.311413 2.085770
v -0.245881 0.091404 1.867643
v 0.000000 0.091404 2.924854
v 0.000000 0.311413 2.704845
v 0.000000 0.391942 2.404306
v 0.000000 0.311413 2.103768
v 0.000000 0.091404 1.883759
v 0.381770 0.091404 2.899832
v 0.353053 0.311413 2.681705
v 0.313825 0.391942 2.383737
v 0.274596 0.311413 2.085770
v 0.245880 0.091404 1.867643
v 0.757007 0.091404 2.825192
v 0.700064 0.311413 2.612680
v 0.622279 0.391942 2.322382
v 0.544494 0.311413 2.032084
v 0.487552 0.091404 1.819571
v 1.119294 0.091404 2.702212
v 1.035100 0.311413 2.498950
v 0.920089 0.391942 2.221289
v 0.805078 0.311413 1.943628
v 0.720884 0.091404 1.740366
v 1.462427 0.091404 2.532998
v 1.352422 0.311413 2.342464
v 1.202153 0.391942 2.082191
v 1.051884 0.311413 1.821917
v 0.941879 0.091404 1.631383
v 1.780538 0.091404 2.320443
v 1.646605 0.311413 2.145898
v 1.463648 0.391942 1.907465
v 1.280692 0.311413 1.669032
v 1.146759 0.091404 1.494487
v 2.068183 0.091404 2.068185
v 1.912613 0.311413 1.912615
v 1.700100 0.391942 1.700102
v 1.487588 0.311413 1.487590
v 1.332018 0.091404 1.332019
v 2.320443 0.091404 1.780538
v 2.145898 0.311413 1.646605
v 1.907465 0.391942 1.463649
v 1.669032 0.311413 1.280693
v 1.494487 0.091404 1.146759
v 2.532998 0.091404 1.462427
v 2.342464 0.311413 1.352423
v 2.082190 0.391942 1.202153
v 1.821916 0.311413 1.051884
v 1.631383 0.091404 0.941880
v 2.702212 0.091404 1.119294
v 2.498950 0.311413 1.035100
v 2.221289 0.391942 0.920089
v 1.943628 0.311413 0.805078
v 1.740366 0.091404 0.720884
v 2.825192 0.091404 0.757007
v 2.612679 0.311413 0.700065
v 2.322382 0.391942 0.622280
v 2.032084 0.311413 0.544495
v 1.819571 0.091404 0.487552
v 2.899832 0.091404 0.381770
v 2.681705 0.311413 0.353053
v 2.383737 0.391942 0.313825
v 2.085770 0.311413 0.274597
v 1.867643 0.091404 0.245880
vt -1.450602 0.500000
vt -1.288444 0.264547
vt -1.303876 0.500000
vt -1.103445 0.500000
vt -1.089728 0.290708
vt -0.903014 0.500000
vt -0.891012 0.316870
vt -0.756289 0.500000
vt -1.384136 -0.004853
vt -1.433914 0.245395
vt -1.242410 0.033123
vt -1.048809 0.084998
vt -0.713482 0.174848
vt -0.745541 0.336022
vt -1.302121 -0.246463
vt -1.166564 -0.190313
vt -0.796217 -0.036910
vt -0.855208 0.136873
vt -0.660660 0.019239
vt -1.062203 -0.401938
vt -0.888624 -0.301723
vt -0.981390 -0.113612
vt -0.587978 -0.128145
vt -1.189270 -0.475301
vt -0.931112 -0.598130
vt -0.772099 -0.476115
vt -0.715046 -0.201507
vt -0.496681 -0.264780
vt -0.879283 -0.879284
vt -1.047516 -0.687451
vt -0.775533 -0.775533
vt -0.633807 -0.633807
vt -0.613086 -0.354101
vt -0.492081 -0.492081
vt -0.598130 -0.931111
vt -0.476116 -0.772099
vt -0.264780 -0.496681
vt -0.388330 -0.388331
vt -0.687451 -1.047516
vt -0.401938 -1.062203
vt -0.301722 -0.888625
vt -0.354101 -0.613086
vt -0.128144 -0.587979
vt -0.246463 -1.302120
vt -0.475301 -1.189271
vt -0.190314 -1.166564
vt -0.113612 -0.981390
vt -0.201507 -0.715047
vt -0.036911 -0.796217
vt -0.004853 -1.384136
vt 0.033123 -1.242410
vt 0.084998 -1.048810
vt 0.174848 -0.713483
vt 0.019239 -0.660660
vt 0.245396 -1.433914
vt 0.290709 -1.089728
vt 0.136873 -0.855209
vt 0.316870 -0.891012
vt 0.500000 -1.450602
vt 0.264547 -1.288444
vt 0.500000 -1.303877
vt 0.500000 -0.903015
vt 0.500000 -0.756289
vt 0.336022 -0.745542
vt 0.754605 -1.433914
vt 0.735454 -1.288444
vt 0.500000 -1.103445
vt 0.709292 -1.089728
vt 0.683131 -0.891012
vt 0.966877 -1.242410
vt 0.915002 -1.048810
vt 0.863127 -0.855209
vt 0.663979 -0.745542
vt 1.246463 -1.302121
vt 1.004853 -1.384137
vt 1.190314 -1.166564
vt 1.036911 -0.796217
vt 0.825152 -0.713483
vt 1.401938 -1.062203
vt 1.113612 -0.981391
vt 1.301723 -0.888625
vt 1.201508 -0.715047
vt 0.980762 -0.660660
vt 1.687451 -1.047516
vt 1.475301 -1.189271
vt 1.598131 -0.931111
vt 1.476116 -0.772099
vt 1.354102 -0.613086
vt 1.128145 -0.587979
vt 1.879284 -0.879283
vt 1.633808 -0.633807
vt 1.492082 -0.492081
vt 1.264781 -0.496681
vt 2.047517 -0.687451
vt 1.775534 -0.775533
vt 1.931112 -0.598130
vt 1.613087 -0.354101
vt 1.388331 -0.388330
vt 2.189270 -0.475301
vt 1.888625 -0.301723
vt 1.772099 -0.476116
vt 1.715046 -0.201507
vt 1.496682 -0.264781
vt 2.302121 -0.246463
vt 2.062203 -0.401939
vt 2.166564 -0.190314
vt 1.796217 -0.036910
vt 1.587979 -0.128145
vt 2.384137 -0.004852
vt 2.242411 0.033123
vt 1.981391 -0.113612
vt 1.855208 0.136873
vt 1.660660 0.019239
vt 2.433914 0.245395
vt 2.288444 0.264547
vt 2.048810 0.084998
vt 2.089728 0.290708
vt 1.891012 0.316869
vt 1.713482 0.174849
vt 2.450602 0.500000
vt 2.303876 0.500000
vt 2.103446 0.500000
vt 1.903015 0.500000
vt 1.745542 0.336021
vt 2.433914 0.754605
vt 2.288444 0.735453
vt 2.089728 0.709292
vt 1.891012 0.683131
vt 1.756290 0.500000
vt 2.242411 0.966878
vt 2.048810 0.915002
vt 1.855208 0.863127
vt 1.713482 0.825152
vt 1.745542 0.663979
vt 2.302122 1.246462
vt 2.384137 1.004853
vt 1.981391 1.113611
vt 1.796217 1.036910
vt 2.189271 1.475301
vt 2.166565 1.190313
vt 2.062203 1.401938
vt 1.888625 1.301723
vt 1.715047 1.201507
vt 1.660661 0.980761
vt 2.047517 1.687451
vt 1.931112 1.598130
vt 1.613087 1.354101
vt 1.587979 1.128145
vt 1.775534 1.775533
vt 1.772099 1.476116
vt 1.633808 1.633807
vt 1.492082 1.492081
vt 1.496682 1.264781
vt 1.879284 1.879284
vt 1.598131 1.931111
vt 1.354102 1.613086
vt 1.388331 1.388331
vt 1.475301 2.189271
vt 1.687452 2.047516
vt 1.401938 2.062203
vt 1.476117 1.772099
vt 1.301723 1.888625
vt 1.128145 1.587979
vt 1.264781 1.496681
vt 1.246463 2.302121
vt 1.190314 2.166564
vt 1.113612 1.981391
vt 1.201508 1.715047
vt 1.036911 1.796217
vt 1.004854 2.384136
vt 0.966878 2.242411
vt 0.915003 2.048810
vt 0.825152 1.713482
vt 0.980762 1.660660
vt 0.735454 2.288444
vt 0.709293 2.089728
vt 0.863128 1.855208
vt 0.663980 1.745542
vt 0.500000 2.450602
vt 0.754606 2.433914
vt 0.500000 2.103446
vt 0.500000 1.903015
vt 0.683131 1.891012
vt 0.245396 2.433914
vt 0.500000 2.303876
vt 0.264547 2.288444
vt 0.290709 2.089728
vt 0.316870 1.891012
vt 0.500000 1.756290
vt -0.004852 2.384137
vt 0.033124 2.242411
vt 0.084999 2.048810
vt 0.136874 1.855208
vt 0.336022 1.745542
vt -0.246463 2.302121
vt -0.190314 2.166564
vt -0.113612 1.981390
vt -0.036911 1.796217
vt 0.174849 1.713482
vt -0.475301 2.189271
vt -0.301722 1.888625
vt -0.201507 1.715047
vt 0.019239 1.660660
vt -0.687450 2.047517
vt -0.401938 2.062203
vt -0.598130 1.931112
vt -0.476115 1.772099
vt -0.354101 1.613087
vt -0.128144 1.587979
vt -0.879283 1.879285
vt -0.633806 1.633808
vt -0.492080 1.492082
vt -0.388330 1.388331
vt -0.264780 1.496682
vt -1.047516 1.687451
vt -0.775532 1.775534
vt -0.772099 1.476115
vt -0.613086 1.354101
vt -1.189270 1.475301
vt -0.931112 1.598130
vt -1.062203 1.401938
vt -0.888624 1.301723
vt -0.715046 1.201508
vt -0.496681 1.264781
vt -1.302120 1.246464
vt -0.981390 1.113613
vt -0.796216 1.036911
vt -0.587978 1.128145
vt -1.384136 1.004853
vt -1.166563 1.190314
vt -1.242410 0.966877
vt -1.048809 0.915002
vt -0.855208 0.863127
vt -0.660660 0.980762
vt -1.288444 0.735453
vt -1.089728 0.709292
vt -0.891012 0.683130
vt -0.713482 0.825151
vt -1.433914 0.754605
vt -0.745541 0.663979
vn 0.7071 0.7071 0.0000
vn 0.5036 0.8614 -0.0663
vn 0.5080 0.8614 0.0000
vn 0.0108 0.9999 0.0000
vn 0.0107 0.9999 -0.0014
vn -0.4918 0.8707 0.0000
vn -0.4876 0.8707 0.0642
vn -0.7071 0.7071 0.0000
vn 0.6830 0.7071 -0.1830
vn 0.7010 0.7071 -0.0923
vn 0.4907 0.8614 -0.1315
vn 0.0104 0.9999 -0.0028
vn -0.6830 0.7071 0.1830
vn -0.7010 0.7071 0.0923
vn 0.6533 0.7071 -0.2706
vn 0.4693 0.8614 -0.1944
vn -0.4544 0.8707 0.1882
vn -0.4751 0.8707 0.1273
vn -0.6533 0.7071 0.2706
vn 0.4399 0.8614 -0.2540
vn 0.0093 0.9999 -0.0054
vn 0.0099 0.9999 -0.0041
vn -0.6124 0.7071 0.3535
vn 0.6124 0.7071 -0.3535
vn 0.4030 0.8614 -0.3092
vn 0.0085 0.9999 -0.0066
vn -0.4259 0.8707 0.2459
vn -0.5610 0.7071 0.4304
vn 0.5000 0.7071 -0.5000
vn 0.5610 0.7071 -0.4304
vn 0.3592 0.8614 -0.3592
vn 0.0076 0.9999 -0.0076
vn -0.3902 0.8707 0.2994
vn -0.3478 0.8707 0.3478
vn 0.3092 0.8614 -0.4030
vn 0.0066 0.9999 -0.0085
vn -0.4304 0.7071 0.5610
vn -0.5000 0.7071 0.5000
vn 0.4304 0.7071 -0.5610
vn 0.2540 0.8614 -0.4399
vn 0.0054 0.9999 -0.0093
vn -0.2994 0.8707 0.3902
vn -0.3535 0.7071 0.6124
vn 0.2706 0.7071 -0.6533
vn 0.3535 0.7071 -0.6124
vn 0.1944 0.8614 -0.4693
vn 0.0041 0.9999 -0.0099
vn -0.2459 0.8707 0.4259
vn -0.1882 0.8707 0.4544
vn 0.1830 0.7071 -0.6830
vn 0.1315 0.8614 -0.4907
vn 0.0028 0.9999 -0.0104
vn -0.1830 0.7071 0.6830
vn -0.2706 0.7071 0.6533
vn 0.0923 0.7071 -0.7010
vn 0.0014 0.9999 -0.0107
vn -0.1273 0.8707 0.4751
vn -0.0642 0.8707 0.4876
vn 0.0000 0.7071 -0.7071
vn 0.0663 0.8614 -0.5036
vn 0.0000 0.8614 -0.5080
vn 0.0000 0.8707 0.4918
vn 0.0000 0.7071 0.7071
vn -0.0923 0.7071 0.7010
vn -0.0923 0.7071 -0.7010
vn -0.0663 0.8614 -0.5036
vn 0.0000 0.9999 -0.0108
vn -0.0014 0.9999 -0.0107
vn 0.0642 0.8707 0.4876
vn -0.1315 0.8614 -0.4907
vn -0.0028 0.9999 -0.0104
vn 0.1273 0.8707 0.4751
vn 0.0923 0.7071 0.7010
vn -0.2706 0.7071 -0.6533
vn -0.1830 0.7071 -0.6830
vn -0.1944 0.8614 -0.4693
vn 0.1882 0.8707 0.4544
vn 0.1830 0.7071 0.6830
vn -0.2540 0.8614 -0.4399
vn -0.0041 0.9999 -0.0099
vn -0.0054 0.9999 -0.0093
vn 0.2459 0.8707 0.4259
vn 0.2706 0.7071 0.6533
vn -0.4304 0.7071 -0.5610
vn -0.3535 0.7071 -0.6124
vn -0.3092 0.8614 -0.4030
vn -0.0066 0.9999 -0.0085
vn 0.2994 0.8707 0.3902
vn 0.3535 0.7071 0.6124
vn -0.5000 0.7071 -0.5000
vn -0.0076 0.9999 -0.0076
vn 0.3478 0.8707 0.3478
vn 0.4304 0.7071 0.5610
vn -0.5610 0.7071 -0.4304
vn -0.3592 0.8614 -0.3592
vn -0.4030 0.8614 -0.3092
vn 0.3902 0.8707 0.2994
vn 0.5000 0.7071 0.5000
vn -0.6124 0.7071 -0.3535
vn -0.0093 0.9999 -0.0054
vn -0.0085 0.9999 -0.0066
vn 0.4259 0.8707 0.2459
vn 0.5610 0.7071 0.4304
vn -0.6533 0.7071 -0.2706
vn -0.4399 0.8614 -0.2540
vn -0.4693 0.8614 -0.1944
vn 0.4544 0.8707 0.1882
vn 0.6124 0.7071 0.3535
vn -0.6830 0.7071 -0.1830
vn -0.4907 0.8614 -0.1315
vn -0.0099 0.9999 -0.0041
vn 0.4751 0.8707 0.1273
vn 0.6533 0.7071 0.2706
vn -0.7010 0.7071 -0.0923
vn -0.5036 0.8614 -0.0663
vn -0.0104 0.9999 -0.0028
vn -0.0107 0.9999 -0.0014
vn 0.4876 0.8707 0.0642
vn 0.6830 0.7071 0.1830
vn -0.5080 0.8614 0.0000
vn -0.0108 0.9999 0.0000
vn 0.4918 0.8707 0.0000
vn 0.7010 0.7071 0.0923
vn -0.5036 0.8614 0.0663
vn -0.0107 0.9999 0.0014
vn 0.4876 0.8707 -0.0642
vn -0.4907 0.8614 0.1315
vn -0.0104 0.9999 0.0028
vn 0.4751 0.8707 -0.1273
vn -0.0099 0.9999 0.0041
vn 0.4544 0.8707 -0.1882
vn -0.4693 0.8614 0.1944
vn -0.4399 0.8614 0.2540
vn -0.0093 0.9999 0.0054
vn 0.4259 0.8707 -0.2459
vn -0.4030 0.8614 0.3092
vn 0.3902 0.8707 -0.2994
vn -0.3592 0.8614 0.3592
vn -0.0085 0.9999 0.0066
vn -0.0076 0.9999 0.0076
vn 0.3478 0.8707 -0.3478
vn -0.3092 0.8614 0.4030
vn 0.2994 0.8707 -0.3902
vn -0.2540 0.8614 0.4399
vn -0.0066 0.9999 0.0085
vn -0.0054 0.9999 0.0093
vn -0.1944 0.8614 0.4693
vn -0.0041 0.9999 0.0099
vn 0.2459 0.8707 -0.4259
vn 0.1882 0.8707 -0.4544
vn -0.1315 0.8614 0.4907
vn -0.0028 0.9999 0.0104
vn -0.0663 0.8614 0.5036
vn -0.0014 0.9999 0.0107
vn 0.1273 0.8707 -0.4751
vn 0.0000 0.9999 0.0108
vn 0.0000 0.8707 -0.4918
vn 0.0642 0.8707 -0.4876
vn 0.0000 0.8614 0.5080
vn 0.0663 0.8614 0.5036
vn 0.0014 0.9999 0.0107
vn -0.0642 0.8707 -0.4876
vn 0.1315 0.8614 0.4907
vn 0.0028 0.9999 0.0104
vn -0.1273 0.8707 -0.4751
vn 0.1944 0.8614 0.4693
vn 0.0041 0.9999 0.0099
vn -0.1882 0.8707 -0.4544
vn 0.0054 0.9999 0.0093
vn -0.2459 0.8707 -0.4259
vn 0.2540 0.8614 0.4399
vn 0.3092 0.8614 0.4030
vn 0.0066 0.9999 0.0085
vn -0.2994 0.8707 -0.3902
vn 0.0076 0.9999 0.0076
vn -0.3478 0.8707 -0.3478
vn 0.3592 0.8614 0.3592
vn 0.0085 0.9999 0.0066
vn -0.3902 0.8707 -0.2994
vn 0.4030 0.8614 0.3092
vn 0.4399 0.8614 0.2540
vn 0.0093 0.9999 0.0054
vn -0.4259 0.8707 -0.2459
vn 0.0099 0.9999 0.0041
vn -0.4544 0.8707 -0.1882
vn 0.4693 0.8614 0.1944
vn 0.4907 0.8614 0.1315
vn 0.0104 0.9999 0.0028
vn -0.4751 0.8707 -0.1273
vn 0.5036 0.8614 0.0663
vn 0.0107 0.9999 0.0014
vn -0.4876 0.8707 -0.0642
s 1
f 1/1/1 7/2/2 2/3/3
f 7/2/2 3/4/4 2/3/3
f 8/5/5 4/6/6 3/4/4
f 9/7/7 5/8/8 4/6/6
f 11/9/9 7/2/2 6/10/10
f 12/11/11 8/5/5 7/2/2
f 13/12/12 9/7/7 8/5/5
f 9/7/7 15/13/13 10/14/14
f 16/15/15 12/11/11 11/9/9
f 17/16/16 13/12/12 12/11/11
f 13/12/12 19/17/17 14/18/18
f 14/18/18 20/19/19 15/13/13
f 16/15/15 22/20/20 17/16/16
f 17/16/16 23/21/21 18/22/22
f 23/21/21 19/17/17 18/22/22
f 19/17/17 25/23/23 20/19/19
f 21/24/24 27/25/25 22/20/20
f 27/25/25 23/21/21 22/20/20
f 28/26/26 24/27/27 23/21/21
f 24/27/27 30/28/28 25/23/23
f 31/29/29 27/25/25 26/30/30
f 32/31/31 28/26/26 27/25/25
f 33/32/32 29/33/33 28/26/26
f 34/34/34 30/28/28 29/33/33
f 31/29/29 37/35/35 32/31/31
f 37/35/35 33/32/32 32/31/31
f 38/36/36 34/34/34 33/32/32
f 34/34/34 40/37/37 35/38/38
f 36/39/39 42/40/40 37/35/35
f 37/35/35 43/41/41 38/36/36
f 43/41/41 39/42/42 38/36/36
f 39/42/42 45/43/43 40/37/37
f 46/44/44 42/40/40 41/45/45
f 47/46/46 43/41/41 42/40/40
f 48/47/47 44/48/48 43/41/41
f 49/49/49 45/43/43 44/48/48
f 51/50/50 47/46/46 46/44/44
f 52/51/51 48/47/47 47/46/46
f 53/52/52 49/49/49 48/47/47
f 49/49/49 55/53/53 50/54/54
f 56/55/55 52/51/51 51/50/50
f 52/51/51 58/56/56 53/52/52
f 58/56/56 54/57/57 53/52/52
f 59/58/58 55/53/53 54/57/57
f 61/59/59 57/60/60 56/55/55
f 62/61/61 58/56/56 57/60/60
f 58/56/56 64/62/62 59/58/58
f 59/58/58 65/63/63 60/64/64
f 66/65/65 62/61/61 61/59/59
f 67/66/66 63/67/67 62/61/61
f 68/68/68 64/62/62 63/67/67
f 69/69/69 65/63/63 64/62/62
f 66/65/65 72/70/70 67/66/66
f 67/66/66 73/71/71 68/68/68
f 73/71/71 69/69/69 68/68/68
f 74/72/72 70/73/73 69/69/69
f 76/74/74 72/70/70 71/75/75
f 77/76/76 73/71/71 72/70/70
f 73/71/71 79/77/77 74/72/72
f 79/77/77 75/78/78 74/72/72
f 76/74/74 82/79/79 77/76/76
f 82/79/79 78/80/80 77/76/76
f 83/81/81 79/77/77 78/80/80
f 84/82/82 80/83/83 79/77/77
f 86/84/84 82/79/79 81/85/85
f 87/86/86 83/81/81 82/79/79
f 88/87/87 84/82/82 83/81/81
f 89/88/88 85/89/89 84/82/82
f 91/90/90 87/86/86 86/84/84
f 87/86/86 93/91/91 88/87/87
f 93/91/91 89/88/88 88/87/87
f 94/92/92 90/93/93 89/88/88
f 96/94/94 92/95/95 91/90/90
f 97/96/96 93/91/91 92/95/95
f 93/91/91 99/97/97 94/92/92
f 99/97/97 95/98/98 94/92/92
f 101/99/99 97/96/96 96/94/94
f 97/96/96 103/100/100 98/101/101
f 103/100/100 99/97/97 98/101/101
f 104/102/102 100/103/103 99/97/97
f 106/104/104 102/105/105 101/99/99
f 107/106/106 103/100/100 102/105/105
f 103/100/100 109/107/107 104/102/102
f 109/107/107 105/108/108 104/102/102
f 111/109/109 107/106/106 106/104/104
f 112/110/110 108/111/111 107/106/106
f 108/111/111 114/112/112 109/107/107
f 114/112/112 110/113/113 109/107/107
f 116/114/114 112/110/110 111/109/109
f 117/115/115 113/116/116 112/110/110
f 118/117/117 114/112/112 113/116/116
f 119/118/118 115/119/119 114/112/112
f 121/120/8 117/115/115 116/114/114
f 122/121/120 118/117/117 117/115/115
f 123/122/121 119/118/118 118/117/117
f 124/123/122 120/124/123 119/118/118
f 126/125/14 122/121/120 121/120/8
f 127/126/124 123/122/121 122/121/120
f 128/127/125 124/123/122 123/122/121
f 129/128/126 125/129/1 124/123/122
f 126/125/14 132/130/127 127/126/124
f 127/126/124 133/131/128 128/127/125
f 128/127/125 134/132/129 129/128/126
f 129/128/126 135/133/9 130/134/10
f 136/135/19 132/130/127 131/136/13
f 132/130/127 138/137/130 133/131/128
f 138/137/130 134/132/129 133/131/128
f 139/138/131 135/133/9 134/132/129
f 141/139/23 137/140/132 136/135/19
f 142/141/133 138/137/130 137/140/132
f 143/142/134 139/138/131 138/137/130
f 144/143/135 140/144/15 139/138/131
f 146/145/28 142/141/133 141/139/23
f 147/146/136 143/142/134 142/141/133
f 143/142/134 149/147/137 144/143/135
f 149/147/137 145/148/24 144/143/135
f 146/145/28 152/149/138 147/146/136
f 152/149/138 148/150/139 147/146/136
f 153/151/140 149/147/137 148/150/139
f 154/152/141 150/153/30 149/147/137
f 151/154/38 157/155/142 152/149/138
f 157/155/142 153/151/140 152/149/138
f 153/151/140 159/156/143 154/152/141
f 159/156/143 155/157/29 154/152/141
f 161/158/43 157/155/142 156/159/37
f 162/160/144 158/161/145 157/155/142
f 163/162/146 159/156/143 158/161/145
f 159/156/143 165/163/45 160/164/39
f 166/165/54 162/160/144 161/158/43
f 167/166/147 163/162/146 162/160/144
f 168/167/148 164/168/149 163/162/146
f 169/169/150 165/163/45 164/168/149
f 171/170/53 167/166/147 166/165/54
f 172/171/151 168/167/148 167/166/147
f 173/172/152 169/169/150 168/167/148
f 169/169/150 175/173/50 170/174/44
f 171/170/53 177/175/153 172/171/151
f 177/175/153 173/172/152 172/171/151
f 178/176/154 174/177/155 173/172/152
f 174/177/155 180/178/55 175/173/50
f 181/179/63 177/175/153 176/180/64
f 177/175/153 183/181/156 178/176/154
f 178/176/154 184/182/157 179/183/158
f 184/182/157 180/178/55 179/183/158
f 186/184/73 182/185/159 181/179/63
f 187/186/160 183/181/156 182/185/159
f 188/187/161 184/182/157 183/181/156
f 189/188/162 185/189/59 184/182/157
f 191/190/78 187/186/160 186/184/73
f 192/191/163 188/187/161 187/186/160
f 193/192/164 189/188/162 188/187/161
f 194/193/165 190/194/65 189/188/162
f 196/195/83 192/191/163 191/190/78
f 197/196/166 193/192/164 192/191/163
f 198/197/167 194/193/165 193/192/164
f 199/198/168 195/199/75 194/193/165
f 201/200/89 197/196/166 196/195/83
f 197/196/166 203/201/169 198/197/167
f 198/197/167 204/202/170 199/198/168
f 204/202/170 200/203/74 199/198/168
f 206/204/93 202/205/171 201/200/89
f 207/206/172 203/201/169 202/205/171
f 208/207/173 204/202/170 203/201/169
f 209/208/174 205/209/85 204/202/170
f 211/210/98 207/206/172 206/204/93
f 207/206/172 213/211/175 208/207/173
f 208/207/173 214/212/176 209/208/174
f 209/208/174 215/213/90 210/214/84
f 216/215/103 212/216/177 211/210/98
f 212/216/177 218/217/178 213/211/175
f 218/217/178 214/212/176 213/211/175
f 219/218/179 215/213/90 214/212/176
f 221/219/108 217/220/180 216/215/103
f 222/221/181 218/217/178 217/220/180
f 223/222/182 219/218/179 218/217/178
f 224/223/183 220/224/94 219/218/179
f 226/225/113 222/221/181 221/219/108
f 222/221/181 228/226/184 223/222/182
f 228/226/184 224/223/183 223/222/182
f 229/227/185 225/228/99 224/223/183
f 231/229/119 227/230/186 226/225/113
f 232/231/187 228/226/184 227/230/186
f 233/232/188 229/227/185 228/226/184
f 234/233/189 230/234/104 229/227/185
f 231/229/119 237/235/190 232/231/187
f 232/231/187 238/236/191 233/232/188
f 238/236/191 234/233/189 233/232/188
f 239/237/192 235/238/109 234/233/189
f 1/1/1 237/235/190 236/239/123
f 2/3/3 238/236/191 237/235/190
f 3/4/4 239/237/192 238/236/191
f 4/6/6 240/240/114 239/237/192
f 1/1/1 6/10/10 7/2/2
f 7/2/2 8/5/5 3/4/4
f 8/5/5 9/7/7 4/6/6
f 9/7/7 10/14/14 5/8/8
f 11/9/9 12/11/11 7/2/2
f 12/11/11 13/12/12 8/5/5
f 13/12/12 14/18/18 9/7/7
f 9/7/7 14/18/18 15/13/13
f 16/15/15 17/16/16 12/11/11
f 17/16/16 18/22/22 13/12/12
f 13/12/12 18/22/22 19/17/17
f 14/18/18 19/17/17 20/19/19
f 16/15/15 21/24/24 22/20/20
f 17/16/16 22/20/20 23/21/21
f 23/21/21 24/27/27 19/17/17
f 19/17/17 24/27/27 25/23/23
f 21/24/24 26/30/30 27/25/25
f 27/25/25 28/26/26 23/21/21
f 28/26/26 29/33/33 24/27/27
f 24/27/27 29/33/33 30/28/28
f 31/29/29 32/31/31 27/25/25
f 32/31/31 33/32/32 28/26/26
f 33/32/32 34/34/34 29/33/33
f 34/34/34 35/38/38 30/28/28
f 31/29/29 36/39/39 37/35/35
f 37/35/35 38/36/36 33/32/32
f 38/36/36 39/42/42 34/34/34
f 34/34/34 39/42/42 40/37/37
f 36/39/39 41/45/45 42/40/40
f 37/35/35 42/40/40 43/41/41
f 43/41/41 44/48/48 39/42/42
f 39/42/42 44/48/48 45/43/43
f 46/44/44 47/46/46 42/40/40
f 47/46/46 48/47/47 43/41/41
f 48/47/47 49/49/49 44/48/48
f 49/49/49 50/54/54 45/43/43
f 51/50/50 52/51/51 47/46/46
f 52/51/51 53/52/52 48/47/47
f 53/52/52 54/57/57 49/49/49
f 49/49/49 54/57/57 55/53/53
f 56/55/55 57/60/60 52/51/51
f 52/51/51 57/60/60 58/56/56
f 58/56/56 59/58/58 54/57/57
f 59/58/58 60/64/64 55/53/53
f 61/59/59 62/61/61 57/60/60
f 62/61/61 63/67/67 58/56/56
f 58/56/56 63/67/67 64/62/62
f 59/58/58 64/62/62 65/63/63
f 66/65/65 67/66/66 62/61/61
f 67/66/66 68/68/68 63/67/67
f 68/68/68 69/69/69 64/62/62
f 69/69/69 70/73/73 65/63/63
f 66/65/65 71/75/75 72/70/70
f 67/66/66 72/70/70 73/71/71
f 73/71/71 74/72/72 69/69/69
f 74/72/72 75/78/78 70/73/73
f 76/74/74 77/76/76 72/70/70
f 77/76/76 78/80/80 73/71/71
f 73/71/71 78/80/80 79/77/77
f 79/77/77 80/83/83 75/78/78
f 76/74/74 81/85/85 82/79/79
f 82/79/79 83/81/81 78/80/80
f 83/81/81 84/82/82 79/77/77
f 84/82/82 85/89/89 80/83/83
f 86/84/84 87/86/86 82/79/79
f 87/86/86 88/87/87 83/81/81
f 88/87/87 89/88/88 84/82/82
f 89/88/88 90/93/93 85/89/89
f 91/90/90 92/95/95 87/86/86
f 87/86/86 92/95/95 93/91/91
f 93/91/91 94/92/92 89/88/88
f 94/92/92 95/98/98 90/93/93
f 96/94/94 97/96/96 92/95/95
f 97/96/96 98/101/101 93/91/91
f 93/91/91 98/101/101 99/97/97
f 99/97/97 100/103/103 95/98/98
f 101/99/99 102/105/105 97/96/96
f 97/96/96 102/105/105 103/100/100
f 103/100/100 104/102/102 99/97/97
f 104/102/102 105/108/108 100/103/103
f 106/104/104 107/106/106 102/105/105
f 107/106/106 108/111/111 103/100/100
f 103/100/100 108/111/111 109/107/107
f 109/107/107 110/113/113 105/108/108
f 111/109/109 112/110/110 107/106/106
f 112/110/110 113/116/116 108/111/111
f 108/111/111 113/116/116 114/112/112
f 114/112/112 115/119/119 110/113/113
f 116/114/114 117/115/115 112/110/110
f 117/115/115 118/117/117 113/116/116
f 118/117/117 119/118/118 114/112/112
f 119/118/118 120/124/123 115/119/119
f 121/120/8 122/121/120 117/115/115
f 122/121/120 123/122/121 118/117/117
f 123/122/121 124/123/122 119/118/118
f 124/123/122 125/129/1 120/124/123
f 126/125/14 127/126/124 122/121/120
f 127/126/124 128/127/125 123/122/121
f 128/127/125 129/128/126 124/123/122
f 129/128/126 130/134/10 125/129/1
f 126/125/14 131/136/13 132/130/127
f 127/126/124 132/130/127 133/131/128
f 128/127/125 133/131/128 134/132/129
f 129/128/126 134/132/129 135/133/9
f 136/135/19 137/140/132 132/130/127
f 132/130/127 137/140/132 138/137/130
f 138/137/130 139/138/131 134/132/129
f 139/138/131 140/144/15 135/133/9
f 141/139/23 142/141/133 137/140/132
f 142/141/133 143/142/134 138/137/130
f 143/142/134 144/143/135 139/138/131
f 144/143/135 145/148/24 140/144/15
f 146/145/28 147/146/136 142/141/133
f 147/146/136 148/150/139 143/142/134
f 143/142/134 148/150/139 149/147/137
f 149/147/137 150/153/30 145/148/24
f 146/145/28 151/154/38 152/149/138
f 152/149/138 153/151/140 148/150/139
f 153/151/140 154/152/141 149/147/137
f 154/152/141 155/157/29 150/153/30
f 151/154/38 156/159/37 157/155/142
f 157/155/142 158/161/145 153/151/140
f 153/151/140 158/161/145 159/156/143
f 159/156/143 160/164/39 155/157/29
f 161/158/43 162/160/144 157/155/142
f 162/160/144 163/162/146 158/161/145
f 163/162/146 164/168/149 159/156/143
f 159/156/143 164/168/149 165/163/45
f 166/165/54 167/166/147 162/160/144
f 167/166/147 168/167/148 163/162/146
f 168/167/148 169/169/150 164/168/149
f 169/169/150 170/174/44 165/163/45
f 171/170/53 172/171/151 167/166/147
f 172/171/151 173/172/152 168/167/148
f 173/172/152 174/177/155 169/169/150
f 169/169/150 174/177/155 175/173/50
f 171/170/53 176/180/64 177/175/153
f 177/175/153 178/176/154 173/172/152
f 178/176/154 179/183/158 174/177/155
f 174/177/155 179/183/158 180/178/55
f 181/179/63 182/185/159 177/175/153
f 177/175/153 182/185/159 183/181/156
f 178/176/154 183/181/156 184/182/157
f 184/182/157 185/189/59 180/178/55
f 186/184/73 187/186/160 182/185/159
f 187/186/160 188/187/161 183/181/156
f 188/187/161 189/188/162 184/182/157
f 189/188/162 190/194/65 185/189/59
f 191/190/78 192/191/163 187/186/160
f 192/191/163 193/192/164 188/187/161
f 193/192/164 194/193/165 189/188/162
f 194/193/165 195/199/75 190/194/65
f 196/195/83 197/196/166 192/191/163
f 197/196/166 198/197/167 193/192/164
f 198/197/167 199/198/168 194/193/165
f 199/198/168 200/203/74 195/199/75
f 201/200/89 202/205/171 197/196/166
f 197/196/166 202/205/171 203/201/169
f 198/197/167 203/201/169 204/202/170
f 204/202/170 205/209/85 200/203/74
f 206/204/93 207/206/172 202/205/171
f 207/206/172 208/207/173 203/201/169
f 208/207/173 209/208/174 204/202/170
f 209/208/174 210/214/84 205/209/85
f 211/210/98 212/216/177 207/206/172
f 207/206/172 212/216/177 213/211/175
f 208/207/173 213/211/175 214/212/176
f 209/208/174 214/212/176 215/213/90
f 216/215/103 217/220/180 212/216/177
f 212/216/177 217/220/180 218/217/178
f 218/217/178 219/218/179 214/212/176
f 219/218/179 220/224/94 215/213/90
f 221/219/108 222/221/181 217/220/180
f 222/221/181 223/222/182 218/217/178
f 223/222/182 224/223/183 219/218/179
f 224/223/183 225/228/99 220/224/94
f 226/225/113 227/230/186 222/221/181
f 222/221/181 227/230/186 228/226/184
f 228/226/184 229/227/185 224/223/183
f 229/227/185 230/234/104 225/228/99
f 231/229/119 232/231/187 227/230/186
f 232/231/187 233/232/188 228/226/184
f 233/232/188 234/233/189 229/227/185
f 234/233/189 235/238/109 230/234/104
f 231/229/119 236/239/123 237/235/190
f 232/231/187 237/235/190 238/236/191
f 238/236/191 239/237/192 234/233/189
f 239/237/192 240/240/114 235/238/109
f 1/1/1 2/3/3 237/235/190
f 2/3/3 3/4/4 238/236/191
f 3/4/4 4/6/6 239/237/192
f 4/6/6 5/8/8 240/240/114
