# Blender v2.93.5 OBJ File: 'dome.blend'
# www.blender.org
o ground_Sphere.001
v 0.000000 0.002107 -8.314696
v 0.000000 0.002107 -7.071067
v 0.000000 0.002107 -5.555701
v 1.913417 0.002107 -9.619396
v 1.802400 0.002107 -9.061274
v 1.622117 0.002107 -8.154931
v 1.379497 0.002107 -6.935198
v 1.083864 0.002107 -5.448950
v 0.746579 0.002107 -3.753303
v 0.380602 0.002107 -1.913417
v 3.753303 0.002107 -9.061274
v 3.535534 0.002107 -8.535534
v 3.181897 0.002107 -7.681776
v 2.705981 0.002107 -6.532814
v 2.126075 0.002107 -5.132799
v 1.464466 0.002107 -3.535534
v 0.746579 0.002107 -1.802399
v 5.448951 0.002107 -8.154930
v 5.132800 0.002107 -7.681777
v 4.619398 0.002107 -6.913416
v 3.928475 0.002107 -5.879377
v 3.086583 0.002107 -4.619397
v 2.126076 0.002107 -3.181896
v 1.083864 0.002107 -1.622116
v 6.935198 0.002107 -6.935198
v 6.532815 0.002107 -6.532814
v 5.879378 0.002107 -5.879376
v 5.000000 0.002107 -5.000000
v 3.928475 0.002107 -3.928473
v 2.705981 0.002107 -2.705980
v 1.379497 0.002107 -1.379496
v 8.154930 0.002107 -5.448949
v 7.681778 0.002107 -5.132799
v 6.913416 0.002107 -4.619396
v 5.879377 0.002107 -3.928474
v 4.619398 0.002107 -3.086581
v 3.181897 0.002107 -2.126075
v 1.622117 0.002107 -1.083863
v 9.061273 0.002107 -3.753301
v 8.535534 0.002107 -3.535533
v 7.681776 0.002107 -3.181895
v 6.532814 0.002107 -2.705980
v 5.132799 0.002107 -2.126074
v 3.535535 0.002107 -1.464466
v 1.802400 0.002107 -0.746578
v 9.619396 0.002107 -1.913416
v 9.061275 0.002107 -1.802398
v 8.154930 0.002107 -1.622115
v 6.935198 0.002107 -1.379496
v 5.448950 0.002107 -1.083863
v 3.753304 0.002107 -0.746578
v 1.913417 0.002107 -0.380602
v 9.807851 0.002107 0.000001
v 9.238795 0.002107 0.000002
v 8.314694 0.002107 0.000001
v 7.071066 0.002107 0.000000
v 5.555701 0.002107 0.000001
v 3.826835 0.002107 0.000001
v 1.950903 0.002107 0.000001
v 9.619395 0.002107 1.913418
v 9.061274 0.002107 1.802401
v 8.154929 0.002107 1.622118
v 6.935198 0.002107 1.379497
v 5.448949 0.002107 1.083865
v 3.753304 0.002107 0.746580
v 1.913417 0.002107 0.380603
v 9.061272 0.002107 3.753303
v 8.535533 0.002107 3.535535
v 7.681775 0.002107 3.181896
v 6.532813 0.002107 2.705980
v 5.132797 0.002107 2.126076
v 3.535535 0.002107 1.464468
v 1.802400 0.002107 0.746579
v 8.154928 0.002107 5.448950
v 7.681776 0.002107 5.132800
v 6.913414 0.002107 4.619397
v 5.879376 0.002107 3.928474
v 4.619396 0.002107 3.086583
v 3.181897 0.002107 2.126077
v 1.622117 0.002107 1.083864
v 6.935196 0.002107 6.935198
v 6.532813 0.002107 6.532815
v 5.879375 0.002107 5.879376
v 5.000000 0.002107 5.000000
v 3.928473 0.002107 3.928474
v 2.705981 0.002107 2.705982
v 1.379497 0.002107 1.379498
v 5.448948 0.002107 8.154929
v 5.132798 0.002107 7.681777
v 4.619396 0.002107 6.913415
v 3.928474 0.002107 5.879377
v 3.086581 0.002107 4.619397
v 2.126076 0.002107 3.181898
v 1.083864 0.002107 1.622117
v 3.753300 0.002107 9.061272
v 3.535532 0.002107 8.535534
v 3.181895 0.002107 7.681775
v 2.705980 0.002107 6.532814
v 2.126074 0.002107 5.132799
v 1.464466 0.002107 3.535535
v 0.746578 0.002107 1.802400
v 1.913415 0.002107 9.619394
v 1.802398 0.002107 9.061274
v 1.622116 0.002107 8.154928
v 1.379497 0.002107 6.935198
v 1.083863 0.002107 5.448950
v 0.746578 0.002107 3.753304
v 0.380602 0.002107 1.913418
v -0.000001 0.002107 9.807849
v -0.000001 0.002107 9.238794
v -0.000000 0.002107 8.314693
v 0.000000 0.002107 7.071066
v -0.000001 0.002107 5.555701
v 0.000000 0.002107 3.826835
v -0.000000 0.002107 1.950904
v -1.913417 0.002107 9.619393
v -1.802400 0.002107 9.061274
v -1.622116 0.002107 8.154928
v -1.379496 0.002107 6.935198
v -1.083864 0.002107 5.448949
v -0.746578 0.002107 3.753304
v -0.380602 0.002107 1.913418
v -3.753302 0.002107 9.061271
v -3.535534 0.002107 8.535532
v -3.181895 0.002107 7.681775
v -2.705979 0.002107 6.532813
v -2.126075 0.002107 5.132797
v -1.464466 0.002107 3.535534
v -0.746578 0.002107 1.802400
v -5.448949 0.002107 8.154927
v -5.132799 0.002107 7.681776
v -4.619395 0.002107 6.913414
v -3.928473 0.002107 5.879376
v -3.086582 0.002107 4.619395
v -2.126075 0.002107 3.181897
v -1.083863 0.002107 1.622117
v -6.935196 0.002107 6.935195
v -6.532814 0.002107 6.532813
v -5.879375 0.002107 5.879375
v -4.999998 0.002107 4.999999
v -3.928473 0.002107 3.928473
v -2.705980 0.002107 2.705981
v -1.379496 0.002107 1.379497
v -8.154927 0.002107 5.448947
v -7.681776 0.002107 5.132797
v -6.913414 0.002107 4.619396
v -5.879375 0.002107 3.928474
v -4.619395 0.002107 3.086581
v -3.181896 0.002107 2.126076
v -1.622116 0.002107 1.083864
v -9.061270 0.002107 3.753300
v -8.535532 0.002107 3.535532
v -7.681773 0.002107 3.181895
v -6.532812 0.002107 2.705980
v -5.132796 0.002107 2.126074
v -3.535533 0.002107 1.464466
v -1.802399 0.002107 0.746579
v -9.619392 0.002107 1.913415
v -9.061272 0.002107 1.802398
v -8.154927 0.002107 1.622116
v -6.935196 0.002107 1.379497
v -5.448947 0.002107 1.083863
v -3.753302 0.002107 0.746579
v -1.913416 0.002107 0.380603
v -9.807847 0.002107 -0.000001
v -9.238792 0.002107 -0.000001
v -8.314692 0.002107 0.000000
v -7.071065 0.002107 0.000001
v -5.555698 0.002107 -0.000000
v -3.826833 0.002107 0.000001
v -1.950902 0.002107 0.000001
v -9.619391 0.002107 -1.913417
v -9.061272 0.002107 -1.802400
v -8.154926 0.002107 -1.622115
v -6.935196 0.002107 -1.379495
v -5.448947 0.002107 -1.083863
v -3.753301 0.002107 -0.746577
v -1.913416 0.002107 -0.380601
v -9.061269 0.002107 -3.753301
v -8.535530 0.002107 -3.535534
v -7.681773 0.002107 -3.181894
v -6.532812 0.002107 -2.705978
v -5.132795 0.002107 -2.126074
v -3.535532 0.002107 -1.464465
v -1.802399 0.002107 -0.746577
v -8.154925 0.002107 -5.448948
v -7.681774 0.002107 -5.132799
v -6.913413 0.002107 -4.619394
v -5.879375 0.002107 -3.928472
v -4.619394 0.002107 -3.086580
v -3.181894 0.002107 -2.126074
v -1.622116 0.002107 -1.083863
v -6.935194 0.002107 -6.935195
v -6.532812 0.002107 -6.532813
v -5.879374 0.002107 -5.879374
v -4.999998 0.002107 -4.999997
v -3.928471 0.002107 -3.928472
v -2.705978 0.002107 -2.705978
v -1.379496 0.002107 -1.379495
v -5.448946 0.002107 -8.154927
v -5.132797 0.002107 -7.681775
v -4.619394 0.002107 -6.913412
v -3.928473 0.002107 -5.879374
v -3.086579 0.002107 -4.619394
v -2.126074 0.002107 -3.181894
v -1.083863 0.002107 -1.622115
v -3.753299 0.002107 -9.061269
v -3.535531 0.002107 -8.535531
v -3.181894 0.002107 -7.681771
v -2.705979 0.002107 -6.532811
v -2.126072 0.002107 -5.132794
v -1.464465 0.002107 -3.535532
v -0.746578 0.002107 -1.802398
v -1.913414 0.002107 -9.619391
v -1.802397 0.002107 -9.061271
v -1.622115 0.002107 -8.154925
v -1.379496 0.002107 -6.935195
v -1.083861 0.002107 -5.448945
v -0.746577 0.002107 -3.753300
v -0.380602 0.002107 -1.913415
v 0.000002 0.002107 -9.807846
v 0.000002 0.002107 -9.238791
v 0.000001 0.002107 -3.826831
v 0.000000 0.002107 -1.950901
v 0.000000 0.002107 0.000001
vt 0.561370 0.765138
vt 0.510103 0.841865
vt 0.510103 0.770187
vt 0.545416 0.684932
vt 0.510103 0.688410
vt 0.528105 0.597904
vt 0.510103 0.599677
vt 0.510103 0.507398
vt 0.595358 0.936004
vt 0.510103 0.971317
vt 0.510103 0.944400
vt 0.586830 0.893133
vt 0.510103 0.900690
vt 0.575354 0.835439
vt 0.677336 0.911136
vt 0.638098 0.816405
vt 0.610668 0.750184
vt 0.579373 0.674632
vt 0.545416 0.592653
vt 0.600609 0.962403
vt 0.610668 0.657904
vt 0.561370 0.584125
vt 0.767842 0.893133
vt 0.687637 0.936004
vt 0.660609 0.870752
vt 0.752888 0.870752
vt 0.695923 0.785497
vt 0.656101 0.725899
vt 0.746607 0.743902
vt 0.728604 0.834408
vt 0.638098 0.635393
vt 0.575354 0.572649
vt 0.838143 0.835439
vt 0.819110 0.816405
vt 0.586830 0.558666
vt 0.895838 0.765138
vt 0.837113 0.725899
vt 0.788202 0.785497
vt 0.788202 0.693218
vt 0.695923 0.693218
vt 0.660609 0.607963
vt 0.728604 0.653396
vt 0.819110 0.635393
vt 0.677336 0.576668
vt 0.595358 0.542712
vt 0.873457 0.750184
vt 0.938708 0.684932
vt 0.873457 0.657904
vt 0.913840 0.674631
vt 0.965108 0.597904
vt 0.895837 0.584125
vt 0.838143 0.572649
vt 0.752888 0.607963
vt 0.767842 0.558666
vt 0.687637 0.542712
vt 0.600609 0.525401
vt 0.844570 0.507398
vt 0.772892 0.507398
vt 0.602382 0.507398
vt 0.938708 0.592653
vt 0.974022 0.507398
vt 0.903395 0.507398
vt 0.947105 0.507398
vt 0.965108 0.416892
vt 0.895837 0.430670
vt 0.838143 0.442147
vt 0.687637 0.472084
vt 0.691115 0.507398
vt 0.600609 0.489395
vt 0.752888 0.406833
vt 0.767842 0.456130
vt 0.677336 0.438127
vt 0.595358 0.472084
vt 0.938708 0.422143
vt 0.938708 0.329864
vt 0.873457 0.356892
vt 0.819110 0.379403
vt 0.913840 0.340164
vt 0.895837 0.249658
vt 0.837113 0.288897
vt 0.788202 0.321578
vt 0.660609 0.406833
vt 0.586830 0.456130
vt 0.695923 0.321578
vt 0.728604 0.361400
vt 0.575354 0.442146
vt 0.873457 0.264612
vt 0.838143 0.179357
vt 0.788202 0.229298
vt 0.746607 0.270894
vt 0.728604 0.180388
vt 0.819110 0.198390
vt 0.695923 0.229298
vt 0.610668 0.356892
vt 0.638098 0.379403
vt 0.561370 0.430670
vt 0.767842 0.121663
vt 0.579373 0.340164
vt 0.545416 0.422143
vt 0.677336 0.103660
vt 0.752888 0.144043
vt 0.660609 0.144044
vt 0.638098 0.198390
vt 0.656101 0.288897
vt 0.610668 0.264612
vt 0.575354 0.179357
vt 0.545416 0.329864
vt 0.528105 0.416892
vt 0.600609 0.052393
vt 0.687637 0.078792
vt 0.586830 0.121663
vt 0.510103 0.415118
vt 0.595358 0.078792
vt 0.510103 0.043479
vt 0.510103 0.114106
vt 0.510103 0.172931
vt 0.561370 0.249658
vt 0.510103 0.326385
vt 0.444851 0.179357
vt 0.510103 0.244609
vt 0.474789 0.329864
vt 0.492100 0.416892
vt 0.510103 0.070395
vt 0.419597 0.052393
vt 0.433375 0.121663
vt 0.474789 0.422143
vt 0.424848 0.078792
vt 0.332569 0.078792
vt 0.359596 0.144044
vt 0.382108 0.198390
vt 0.458835 0.249658
vt 0.440832 0.340164
vt 0.409537 0.264612
vt 0.324283 0.229298
vt 0.409537 0.356892
vt 0.458835 0.430670
vt 0.342869 0.103660
vt 0.252363 0.121663
vt 0.291601 0.180388
vt 0.267317 0.144044
vt 0.182062 0.179357
vt 0.232003 0.229299
vt 0.273599 0.270894
vt 0.364105 0.288897
vt 0.382108 0.379403
vt 0.444851 0.442147
vt 0.324283 0.321578
vt 0.232003 0.321578
vt 0.359596 0.406833
vt 0.433375 0.456130
vt 0.201095 0.198391
vt 0.124368 0.249658
vt 0.183093 0.288897
vt 0.146748 0.264612
vt 0.081497 0.329864
vt 0.146748 0.356892
vt 0.201095 0.379403
vt 0.291601 0.361400
vt 0.267317 0.406833
vt 0.342869 0.438127
vt 0.424848 0.472084
vt 0.332569 0.472084
vt 0.419597 0.489395
vt 0.106365 0.340164
vt 0.055097 0.416892
vt 0.124368 0.430670
vt 0.182062 0.442147
vt 0.116811 0.507398
vt 0.081497 0.422143
vt 0.175635 0.507398
vt 0.252363 0.456130
vt 0.329090 0.507398
vt 0.417823 0.507398
vt 0.046183 0.507398
vt 0.419597 0.525401
vt 0.073100 0.507398
vt 0.055097 0.597904
vt 0.124368 0.584125
vt 0.182062 0.572649
vt 0.247314 0.507398
vt 0.332569 0.542712
vt 0.146748 0.657904
vt 0.081497 0.592653
vt 0.201095 0.635393
vt 0.252363 0.558666
vt 0.342869 0.576668
vt 0.424848 0.542712
vt 0.081497 0.684932
vt 0.433375 0.558666
vt 0.106365 0.674632
vt 0.124368 0.765138
vt 0.183093 0.725899
vt 0.232003 0.693218
vt 0.267317 0.607963
vt 0.359596 0.607963
vt 0.273599 0.743902
vt 0.291602 0.653396
vt 0.324283 0.693218
vt 0.382108 0.635393
vt 0.444851 0.572649
vt 0.146748 0.750184
vt 0.182062 0.835439
vt 0.232003 0.785497
vt 0.458835 0.584125
vt 0.267317 0.870752
vt 0.201095 0.816405
vt 0.291601 0.834408
vt 0.324283 0.785497
vt 0.409538 0.657904
vt 0.382108 0.816405
vt 0.364105 0.725899
vt 0.440832 0.674631
vt 0.474789 0.592653
vt 0.342869 0.911136
vt 0.252363 0.893133
vt 0.359596 0.870752
vt 0.492100 0.597904
vt 0.424848 0.936004
vt 0.332569 0.936004
vt 0.433375 0.893133
vt 0.444851 0.835439
vt 0.409538 0.750183
vt 0.474789 0.684932
vt 0.458835 0.765138
vt 0.419597 0.962403
vn 0.0000 1.0000 0.0000
s off
f 8/1/1 2/2/1 3/3/1
f 9/4/1 3/3/1 223/5/1
f 10/6/1 223/5/1 224/7/1
f 225/8/1 10/6/1 224/7/1
f 5/9/1 221/10/1 222/11/1
f 6/12/1 222/11/1 1/13/1
f 7/14/1 1/13/1 2/2/1
f 6/12/1 12/15/1 5/9/1
f 14/16/1 6/12/1 7/14/1
f 15/17/1 7/14/1 8/1/1
f 16/18/1 8/1/1 9/4/1
f 10/6/1 16/18/1 9/4/1
f 225/8/1 17/19/1 10/6/1
f 12/15/1 4/20/1 5/9/1
f 17/19/1 23/21/1 16/18/1
f 225/8/1 24/22/1 17/19/1
f 12/15/1 18/23/1 11/24/1
f 13/25/1 19/26/1 12/15/1
f 21/27/1 13/25/1 14/16/1
f 22/28/1 14/16/1 15/17/1
f 23/21/1 15/17/1 16/18/1
f 28/29/1 20/30/1 21/27/1
f 22/28/1 28/29/1 21/27/1
f 30/31/1 22/28/1 23/21/1
f 31/32/1 23/21/1 24/22/1
f 225/8/1 31/32/1 24/22/1
f 19/26/1 25/33/1 18/23/1
f 20/30/1 26/34/1 19/26/1
f 225/8/1 38/35/1 31/32/1
f 26/34/1 32/36/1 25/33/1
f 34/37/1 26/34/1 27/38/1
f 35/39/1 27/38/1 28/29/1
f 29/40/1 35/39/1 28/29/1
f 37/41/1 29/40/1 30/31/1
f 38/35/1 30/31/1 31/32/1
f 36/42/1 42/43/1 35/39/1
f 44/44/1 36/42/1 37/41/1
f 38/35/1 44/44/1 37/41/1
f 225/8/1 45/45/1 38/35/1
f 33/46/1 39/47/1 32/36/1
f 41/48/1 33/46/1 34/37/1
f 42/43/1 34/37/1 35/39/1
f 40/49/1 46/50/1 39/47/1
f 48/51/1 40/49/1 41/48/1
f 49/52/1 41/48/1 42/43/1
f 43/53/1 49/52/1 42/43/1
f 44/44/1 50/54/1 43/53/1
f 45/45/1 51/55/1 44/44/1
f 225/8/1 52/56/1 45/45/1
f 50/54/1 56/57/1 49/52/1
f 51/55/1 57/58/1 50/54/1
f 59/59/1 51/55/1 52/56/1
f 225/8/1 59/59/1 52/56/1
f 47/60/1 53/61/1 46/50/1
f 55/62/1 47/60/1 48/51/1
f 56/57/1 48/51/1 49/52/1
f 54/63/1 60/64/1 53/61/1
f 62/65/1 54/63/1 55/62/1
f 63/66/1 55/62/1 56/57/1
f 57/58/1 63/66/1 56/57/1
f 65/67/1 57/58/1 58/68/1
f 66/69/1 58/68/1 59/59/1
f 225/8/1 66/69/1 59/59/1
f 65/67/1 71/70/1 64/71/1
f 66/69/1 72/72/1 65/67/1
f 225/8/1 73/73/1 66/69/1
f 61/74/1 67/75/1 60/64/1
f 69/76/1 61/74/1 62/65/1
f 70/77/1 62/65/1 63/66/1
f 64/71/1 70/77/1 63/66/1
f 68/78/1 74/79/1 67/75/1
f 76/80/1 68/78/1 69/76/1
f 77/81/1 69/76/1 70/77/1
f 71/70/1 77/81/1 70/77/1
f 79/82/1 71/70/1 72/72/1
f 80/83/1 72/72/1 73/73/1
f 225/8/1 80/83/1 73/73/1
f 79/82/1 85/84/1 78/85/1
f 87/86/1 79/82/1 80/83/1
f 225/8/1 87/86/1 80/83/1
f 75/87/1 81/88/1 74/79/1
f 83/89/1 75/87/1 76/80/1
f 84/90/1 76/80/1 77/81/1
f 85/84/1 77/81/1 78/85/1
f 90/91/1 82/92/1 83/89/1
f 91/93/1 83/89/1 84/90/1
f 85/84/1 91/93/1 84/90/1
f 93/94/1 85/84/1 86/95/1
f 94/96/1 86/95/1 87/86/1
f 225/8/1 94/96/1 87/86/1
f 82/92/1 88/97/1 81/88/1
f 94/96/1 100/98/1 93/94/1
f 225/8/1 101/99/1 94/96/1
f 96/100/1 88/97/1 89/101/1
f 97/102/1 89/101/1 90/91/1
f 98/103/1 90/91/1 91/93/1
f 92/104/1 98/103/1 91/93/1
f 93/94/1 99/105/1 92/104/1
f 105/106/1 97/102/1 98/103/1
f 99/105/1 105/106/1 98/103/1
f 107/107/1 99/105/1 100/98/1
f 101/99/1 107/107/1 100/98/1
f 225/8/1 108/108/1 101/99/1
f 96/100/1 102/109/1 95/110/1
f 104/111/1 96/100/1 97/102/1
f 225/8/1 115/112/1 108/108/1
f 103/113/1 109/114/1 102/109/1
f 111/115/1 103/113/1 104/111/1
f 112/116/1 104/111/1 105/106/1
f 106/117/1 112/116/1 105/106/1
f 114/118/1 106/117/1 107/107/1
f 115/112/1 107/107/1 108/108/1
f 119/119/1 111/115/1 112/116/1
f 113/120/1 119/119/1 112/116/1
f 121/121/1 113/120/1 114/118/1
f 115/112/1 121/121/1 114/118/1
f 225/8/1 122/122/1 115/112/1
f 110/123/1 116/124/1 109/114/1
f 118/125/1 110/123/1 111/115/1
f 225/8/1 129/126/1 122/122/1
f 117/127/1 123/128/1 116/124/1
f 125/129/1 117/127/1 118/125/1
f 126/130/1 118/125/1 119/119/1
f 120/131/1 126/130/1 119/119/1
f 128/132/1 120/131/1 121/121/1
f 122/122/1 128/132/1 121/121/1
f 127/133/1 133/134/1 126/130/1
f 135/135/1 127/133/1 128/132/1
f 136/136/1 128/132/1 129/126/1
f 225/8/1 136/136/1 129/126/1
f 124/137/1 130/138/1 123/128/1
f 132/139/1 124/137/1 125/129/1
f 133/134/1 125/129/1 126/130/1
f 131/140/1 137/141/1 130/138/1
f 139/142/1 131/140/1 132/139/1
f 140/143/1 132/139/1 133/134/1
f 134/144/1 140/143/1 133/134/1
f 142/145/1 134/144/1 135/135/1
f 143/146/1 135/135/1 136/136/1
f 225/8/1 143/146/1 136/136/1
f 141/147/1 147/148/1 140/143/1
f 149/149/1 141/147/1 142/145/1
f 150/150/1 142/145/1 143/146/1
f 225/8/1 150/150/1 143/146/1
f 138/151/1 144/152/1 137/141/1
f 146/153/1 138/151/1 139/142/1
f 147/148/1 139/142/1 140/143/1
f 145/154/1 151/155/1 144/152/1
f 153/156/1 145/154/1 146/153/1
f 154/157/1 146/153/1 147/148/1
f 148/158/1 154/157/1 147/148/1
f 149/149/1 155/159/1 148/158/1
f 150/150/1 156/160/1 149/149/1
f 225/8/1 157/161/1 150/150/1
f 163/162/1 155/159/1 156/160/1
f 164/163/1 156/160/1 157/161/1
f 225/8/1 164/163/1 157/161/1
f 152/164/1 158/165/1 151/155/1
f 160/166/1 152/164/1 153/156/1
f 161/167/1 153/156/1 154/157/1
f 155/159/1 161/167/1 154/157/1
f 167/168/1 159/169/1 160/166/1
f 168/170/1 160/166/1 161/167/1
f 162/171/1 168/170/1 161/167/1
f 170/172/1 162/171/1 163/162/1
f 164/163/1 170/172/1 163/162/1
f 225/8/1 171/173/1 164/163/1
f 159/169/1 165/174/1 158/165/1
f 178/175/1 170/172/1 171/173/1
f 225/8/1 178/175/1 171/173/1
f 166/176/1 172/177/1 165/174/1
f 174/178/1 166/176/1 167/168/1
f 175/179/1 167/168/1 168/170/1
f 169/180/1 175/179/1 168/170/1
f 177/181/1 169/180/1 170/172/1
f 181/182/1 173/183/1 174/178/1
f 182/184/1 174/178/1 175/179/1
f 176/185/1 182/184/1 175/179/1
f 184/186/1 176/185/1 177/181/1
f 178/175/1 184/186/1 177/181/1
f 225/8/1 185/187/1 178/175/1
f 173/183/1 179/188/1 172/177/1
f 192/189/1 184/186/1 185/187/1
f 225/8/1 192/189/1 185/187/1
f 180/190/1 186/191/1 179/188/1
f 188/192/1 180/190/1 181/182/1
f 189/193/1 181/182/1 182/184/1
f 183/194/1 189/193/1 182/184/1
f 191/195/1 183/194/1 184/186/1
f 196/196/1 188/192/1 189/193/1
f 190/197/1 196/196/1 189/193/1
f 191/195/1 197/198/1 190/197/1
f 192/189/1 198/199/1 191/195/1
f 225/8/1 199/200/1 192/189/1
f 187/201/1 193/202/1 186/191/1
f 195/203/1 187/201/1 188/192/1
f 225/8/1 206/204/1 199/200/1
f 201/205/1 193/202/1 194/206/1
f 202/207/1 194/206/1 195/203/1
f 203/208/1 195/203/1 196/196/1
f 197/198/1 203/208/1 196/196/1
f 205/209/1 197/198/1 198/199/1
f 206/204/1 198/199/1 199/200/1
f 210/210/1 202/207/1 203/208/1
f 204/211/1 210/210/1 203/208/1
f 212/212/1 204/211/1 205/209/1
f 213/213/1 205/209/1 206/204/1
f 225/8/1 213/213/1 206/204/1
f 208/214/1 200/215/1 201/205/1
f 209/216/1 201/205/1 202/207/1
f 225/8/1 220/217/1 213/213/1
f 215/218/1 207/219/1 208/214/1
f 216/220/1 208/214/1 209/216/1
f 217/221/1 209/216/1 210/210/1
f 211/222/1 217/221/1 210/210/1
f 219/223/1 211/222/1 212/212/1
f 213/213/1 219/223/1 212/212/1
f 3/3/1 217/221/1 218/224/1
f 223/5/1 218/224/1 219/223/1
f 224/7/1 219/223/1 220/217/1
f 225/8/1 224/7/1 220/217/1
f 222/11/1 214/225/1 215/218/1
f 1/13/1 215/218/1 216/220/1
f 2/2/1 216/220/1 217/221/1
f 8/1/1 7/14/1 2/2/1
f 9/4/1 8/1/1 3/3/1
f 10/6/1 9/4/1 223/5/1
f 5/9/1 4/20/1 221/10/1
f 6/12/1 5/9/1 222/11/1
f 7/14/1 6/12/1 1/13/1
f 6/12/1 13/25/1 12/15/1
f 14/16/1 13/25/1 6/12/1
f 15/17/1 14/16/1 7/14/1
f 16/18/1 15/17/1 8/1/1
f 10/6/1 17/19/1 16/18/1
f 12/15/1 11/24/1 4/20/1
f 17/19/1 24/22/1 23/21/1
f 12/15/1 19/26/1 18/23/1
f 13/25/1 20/30/1 19/26/1
f 21/27/1 20/30/1 13/25/1
f 22/28/1 21/27/1 14/16/1
f 23/21/1 22/28/1 15/17/1
f 28/29/1 27/38/1 20/30/1
f 22/28/1 29/40/1 28/29/1
f 30/31/1 29/40/1 22/28/1
f 31/32/1 30/31/1 23/21/1
f 19/26/1 26/34/1 25/33/1
f 20/30/1 27/38/1 26/34/1
f 26/34/1 33/46/1 32/36/1
f 34/37/1 33/46/1 26/34/1
f 35/39/1 34/37/1 27/38/1
f 29/40/1 36/42/1 35/39/1
f 37/41/1 36/42/1 29/40/1
f 38/35/1 37/41/1 30/31/1
f 36/42/1 43/53/1 42/43/1
f 44/44/1 43/53/1 36/42/1
f 38/35/1 45/45/1 44/44/1
f 33/46/1 40/49/1 39/47/1
f 41/48/1 40/49/1 33/46/1
f 42/43/1 41/48/1 34/37/1
f 40/49/1 47/60/1 46/50/1
f 48/51/1 47/60/1 40/49/1
f 49/52/1 48/51/1 41/48/1
f 43/53/1 50/54/1 49/52/1
f 44/44/1 51/55/1 50/54/1
f 45/45/1 52/56/1 51/55/1
f 50/54/1 57/58/1 56/57/1
f 51/55/1 58/68/1 57/58/1
f 59/59/1 58/68/1 51/55/1
f 47/60/1 54/63/1 53/61/1
f 55/62/1 54/63/1 47/60/1
f 56/57/1 55/62/1 48/51/1
f 54/63/1 61/74/1 60/64/1
f 62/65/1 61/74/1 54/63/1
f 63/66/1 62/65/1 55/62/1
f 57/58/1 64/71/1 63/66/1
f 65/67/1 64/71/1 57/58/1
f 66/69/1 65/67/1 58/68/1
f 65/67/1 72/72/1 71/70/1
f 66/69/1 73/73/1 72/72/1
f 61/74/1 68/78/1 67/75/1
f 69/76/1 68/78/1 61/74/1
f 70/77/1 69/76/1 62/65/1
f 64/71/1 71/70/1 70/77/1
f 68/78/1 75/87/1 74/79/1
f 76/80/1 75/87/1 68/78/1
f 77/81/1 76/80/1 69/76/1
f 71/70/1 78/85/1 77/81/1
f 79/82/1 78/85/1 71/70/1
f 80/83/1 79/82/1 72/72/1
f 79/82/1 86/95/1 85/84/1
f 87/86/1 86/95/1 79/82/1
f 75/87/1 82/92/1 81/88/1
f 83/89/1 82/92/1 75/87/1
f 84/90/1 83/89/1 76/80/1
f 85/84/1 84/90/1 77/81/1
f 90/91/1 89/101/1 82/92/1
f 91/93/1 90/91/1 83/89/1
f 85/84/1 92/104/1 91/93/1
f 93/94/1 92/104/1 85/84/1
f 94/96/1 93/94/1 86/95/1
f 82/92/1 89/101/1 88/97/1
f 94/96/1 101/99/1 100/98/1
f 96/100/1 95/110/1 88/97/1
f 97/102/1 96/100/1 89/101/1
f 98/103/1 97/102/1 90/91/1
f 92/104/1 99/105/1 98/103/1
f 93/94/1 100/98/1 99/105/1
f 105/106/1 104/111/1 97/102/1
f 99/105/1 106/117/1 105/106/1
f 107/107/1 106/117/1 99/105/1
f 101/99/1 108/108/1 107/107/1
f 96/100/1 103/113/1 102/109/1
f 104/111/1 103/113/1 96/100/1
f 103/113/1 110/123/1 109/114/1
f 111/115/1 110/123/1 103/113/1
f 112/116/1 111/115/1 104/111/1
f 106/117/1 113/120/1 112/116/1
f 114/118/1 113/120/1 106/117/1
f 115/112/1 114/118/1 107/107/1
f 119/119/1 118/125/1 111/115/1
f 113/120/1 120/131/1 119/119/1
f 121/121/1 120/131/1 113/120/1
f 115/112/1 122/122/1 121/121/1
f 110/123/1 117/127/1 116/124/1
f 118/125/1 117/127/1 110/123/1
f 117/127/1 124/137/1 123/128/1
f 125/129/1 124/137/1 117/127/1
f 126/130/1 125/129/1 118/125/1
f 120/131/1 127/133/1 126/130/1
f 128/132/1 127/133/1 120/131/1
f 122/122/1 129/126/1 128/132/1
f 127/133/1 134/144/1 133/134/1
f 135/135/1 134/144/1 127/133/1
f 136/136/1 135/135/1 128/132/1
f 124/137/1 131/140/1 130/138/1
f 132/139/1 131/140/1 124/137/1
f 133/134/1 132/139/1 125/129/1
f 131/140/1 138/151/1 137/141/1
f 139/142/1 138/151/1 131/140/1
f 140/143/1 139/142/1 132/139/1
f 134/144/1 141/147/1 140/143/1
f 142/145/1 141/147/1 134/144/1
f 143/146/1 142/145/1 135/135/1
f 141/147/1 148/158/1 147/148/1
f 149/149/1 148/158/1 141/147/1
f 150/150/1 149/149/1 142/145/1
f 138/151/1 145/154/1 144/152/1
f 146/153/1 145/154/1 138/151/1
f 147/148/1 146/153/1 139/142/1
f 145/154/1 152/164/1 151/155/1
f 153/156/1 152/164/1 145/154/1
f 154/157/1 153/156/1 146/153/1
f 148/158/1 155/159/1 154/157/1
f 149/149/1 156/160/1 155/159/1
f 150/150/1 157/161/1 156/160/1
f 163/162/1 162/171/1 155/159/1
f 164/163/1 163/162/1 156/160/1
f 152/164/1 159/169/1 158/165/1
f 160/166/1 159/169/1 152/164/1
f 161/167/1 160/166/1 153/156/1
f 155/159/1 162/171/1 161/167/1
f 167/168/1 166/176/1 159/169/1
f 168/170/1 167/168/1 160/166/1
f 162/171/1 169/180/1 168/170/1
f 170/172/1 169/180/1 162/171/1
f 164/163/1 171/173/1 170/172/1
f 159/169/1 166/176/1 165/174/1
f 178/175/1 177/181/1 170/172/1
f 166/176/1 173/183/1 172/177/1
f 174/178/1 173/183/1 166/176/1
f 175/179/1 174/178/1 167/168/1
f 169/180/1 176/185/1 175/179/1
f 177/181/1 176/185/1 169/180/1
f 181/182/1 180/190/1 173/183/1
f 182/184/1 181/182/1 174/178/1
f 176/185/1 183/194/1 182/184/1
f 184/186/1 183/194/1 176/185/1
f 178/175/1 185/187/1 184/186/1
f 173/183/1 180/190/1 179/188/1
f 192/189/1 191/195/1 184/186/1
f 180/190/1 187/201/1 186/191/1
f 188/192/1 187/201/1 180/190/1
f 189/193/1 188/192/1 181/182/1
f 183/194/1 190/197/1 189/193/1
f 191/195/1 190/197/1 183/194/1
f 196/196/1 195/203/1 188/192/1
f 190/197/1 197/198/1 196/196/1
f 191/195/1 198/199/1 197/198/1
f 192/189/1 199/200/1 198/199/1
f 187/201/1 194/206/1 193/202/1
f 195/203/1 194/206/1 187/201/1
f 201/205/1 200/215/1 193/202/1
f 202/207/1 201/205/1 194/206/1
f 203/208/1 202/207/1 195/203/1
f 197/198/1 204/211/1 203/208/1
f 205/209/1 204/211/1 197/198/1
f 206/204/1 205/209/1 198/199/1
f 210/210/1 209/216/1 202/207/1
f 204/211/1 211/222/1 210/210/1
f 212/212/1 211/222/1 204/211/1
f 213/213/1 212/212/1 205/209/1
f 208/214/1 207/219/1 200/215/1
f 209/216/1 208/214/1 201/205/1
f 215/218/1 214/225/1 207/219/1
f 216/220/1 215/218/1 208/214/1
f 217/221/1 216/220/1 209/216/1
f 211/222/1 218/224/1 217/221/1
f 219/223/1 218/224/1 211/222/1
f 213/213/1 220/217/1 219/223/1
f 3/3/1 2/2/1 217/221/1
f 223/5/1 3/3/1 218/224/1
f 224/7/1 223/5/1 219/223/1
f 222/11/1 221/10/1 214/225/1
f 1/13/1 222/11/1 215/218/1
f 2/2/1 1/13/1 216/220/1
