# Blender v2.93.6 OBJ File: 'decorations.blend'
# www.blender.org
o Cube.303
v 1.000000 2.000000 0.001000
v -1.000000 -0.000000 0.001000
v 1.000000 -0.000000 0.001000
v -1.000000 2.000000 0.001000
vt 1.000000 1.000000
vt 0.000000 0.000000
vt 1.000000 0.000000
vt 0.000000 1.000000
vn 0.0000 -0.0000 1.0000
s 1
f 1/1/1 2/2/1 3/3/1
f 1/1/1 4/4/1 2/2/1
